{
    "auto_balance": false,
    "auto_restart": false,
    "concurrency": 0,
    "dependencies": "log,clearblade,mqtt",
    "execution_timeout": -1,
    "logging_enabled": true,
    "name": "provisionDevice",
    "params": [
        ""
    ],
    "run_user": ""
}